﻿<root dataType="Struct" type="Duality.Resources.DrawTechnique" id="129723834">
  <assetInfo />
  <blendType dataType="Enum" type="Duality.Drawing.BlendMode" name="Alpha" value="3" />
  <prefType />
  <shader dataType="Struct" type="Duality.ContentRef`1[[Duality.Resources.ShaderProgram]]">
    <contentPath dataType="String">Data\Shaders\TakeDamageEffectProgram.ShaderProgram.res</contentPath>
  </shader>
</root>
<!-- XmlFormatterBase Document Separator -->
