﻿<root dataType="Struct" type="Duality.Plugins.Tilemaps.Tileset" id="129723834">
  <assetInfo />
  <autoTileConfig dataType="Struct" type="System.Collections.Generic.List`1[[Duality.Plugins.Tilemaps.TilesetAutoTileInput]]" id="427169525">
    <_items dataType="Array" type="Duality.Plugins.Tilemaps.TilesetAutoTileInput[]" id="1100841590" length="0" />
    <_size dataType="Int">0</_size>
    <_version dataType="Int">0</_version>
  </autoTileConfig>
  <baseMaterial dataType="Struct" type="Duality.Drawing.BatchInfo" id="2035693768">
    <dirtyFlag dataType="Enum" type="Duality.Drawing.BatchInfo+DirtyFlag" name="All" value="3" />
    <hashCode dataType="Int">0</hashCode>
    <mainColor dataType="Struct" type="Duality.Drawing.ColorRgba">
      <A dataType="Byte">255</A>
      <B dataType="Byte">255</B>
      <G dataType="Byte">255</G>
      <R dataType="Byte">255</R>
    </mainColor>
    <technique dataType="Struct" type="Duality.ContentRef`1[[Duality.Resources.DrawTechnique]]">
      <contentPath dataType="String">Default:DrawTechnique:Mask</contentPath>
    </technique>
    <textures />
    <uniforms />
  </baseMaterial>
  <renderConfig dataType="Struct" type="System.Collections.Generic.List`1[[Duality.Plugins.Tilemaps.TilesetRenderInput]]" id="876525375">
    <_items dataType="Array" type="Duality.Plugins.Tilemaps.TilesetRenderInput[]" id="295733828" length="0" />
    <_size dataType="Int">0</_size>
    <_version dataType="Int">0</_version>
  </renderConfig>
  <tileInput dataType="Struct" type="Duality.RawList`1[[Duality.Plugins.Tilemaps.TileInput]]" id="2716248726">
    <count dataType="Int">0</count>
    <data dataType="Array" type="Duality.Plugins.Tilemaps.TileInput[]" id="3244550529" length="8" />
  </tileInput>
  <tileSize dataType="Struct" type="Duality.Vector2">
    <X dataType="Float">32</X>
    <Y dataType="Float">32</Y>
  </tileSize>
</root>
<!-- XmlFormatterBase Document Separator -->
