﻿<root dataType="Struct" type="Duality.Resources.ShaderProgram" id="129723834">
  <assetInfo />
  <frag dataType="Struct" type="Duality.ContentRef`1[[Duality.Resources.FragmentShader]]">
    <contentPath dataType="String">Data\Shaders\TakeDamageEffect.FragmentShader.res</contentPath>
  </frag>
  <vert dataType="Struct" type="Duality.ContentRef`1[[Duality.Resources.VertexShader]]" />
</root>
<!-- XmlFormatterBase Document Separator -->
