

[2017-04-29 15:48:42] Startup - updater built Dec  2 2013 18:43:44
[2017-04-29 15:48:42] Checking for update on startup
[2017-04-29 15:48:42] Checking for available update...
[2017-04-29 15:49:03] Download failed: http error 0
[2017-04-29 15:49:03] Package file steamcmd_public_all.zip.509c709ea8ee855d8f1d0dfa9d4a6738ed65e7d9 missing or incorrect size
[2017-04-29 15:49:03] Package file steamcmd_bins_win32.zip.5c2dfb291e619ea322dc355f6f75f0862dd69e01 missing or incorrect size
[2017-04-29 15:49:03] Package file steamcmd_steamservice_win32.zip.a17cb80dc1af5d309cd386b1acd6a670ce3bca5e missing or incorrect size
[2017-04-29 15:49:03] Package file steamcmd_steamerrorreporter_win32.zip.1f5732e7e015104e158294f73bf6d1e1ba83920b missing or incorrect size
[2017-04-29 15:49:03] Package file steamcmd_win32.zip.1c93d7fc7810cb2871fc7be15fb2053b3e0d9bdc missing or incorrect size
[2017-04-29 15:49:03] Downloading update (0 of 8,887 KB)...
[2017-04-29 15:49:04] Downloading update (938 of 8,887 KB)...
[2017-04-29 15:49:04] Downloading update (1,929 of 8,887 KB)...
[2017-04-29 15:49:04] Downloading update (2,710 of 8,887 KB)...
[2017-04-29 15:49:05] Downloading update (3,234 of 8,887 KB)...
[2017-04-29 15:49:05] Downloading update (3,551 of 8,887 KB)...
[2017-04-29 15:49:05] Downloading update (3,914 of 8,887 KB)...
[2017-04-29 15:49:05] Downloading update (4,145 of 8,887 KB)...
[2017-04-29 15:49:06] Downloading update (4,347 of 8,887 KB)...
[2017-04-29 15:49:06] Downloading update (5,048 of 8,887 KB)...
[2017-04-29 15:49:06] Downloading update (5,468 of 8,887 KB)...
[2017-04-29 15:49:06] Downloading update (6,519 of 8,887 KB)...
[2017-04-29 15:49:07] Downloading update (7,765 of 8,887 KB)...
[2017-04-29 15:49:07] Downloading update (8,020 of 8,887 KB)...
[2017-04-29 15:49:07] Downloading update (8,307 of 8,887 KB)...
[2017-04-29 15:49:07] Downloading update (8,887 of 8,887 KB)...
[2017-04-29 15:49:07] Download Complete.
[2017-04-29 15:49:07] uninstalled manifest found in D:\Documents\Game Development\Repositories\lemon-man\Lemon Man\Lemon Man\Source\Code\CorePlugin\package\steam_cmd_win32 (1).
[2017-04-29 15:49:07] Found pending update
[2017-04-29 15:49:07] Applying update...
[2017-04-29 15:49:07] Extracting package...
[2017-04-29 15:49:09] Installing update...
[2017-04-29 15:49:09] Committing NTFS transaction (0 non-transactional backup files)
[2017-04-29 15:49:09] Cleaning up...
[2017-04-29 15:49:09] Update complete, launching...
[2017-04-29 15:49:09] Shutdown
