﻿<root dataType="Struct" type="Duality.Resources.Prefab" id="129723834">
  <assetInfo dataType="Struct" type="Duality.Editor.AssetManagement.AssetInfo" id="427169525">
    <customData />
    <importerId />
    <sourceFileHint />
  </assetInfo>
  <objTree dataType="Struct" type="Duality.GameObject" id="1094056946">
    <active dataType="Bool">true</active>
    <children />
    <compList dataType="Struct" type="System.Collections.Generic.List`1[[Duality.Component]]" id="2463487573">
      <_items dataType="Array" type="Duality.Component[]" id="732267766" length="4">
        <item dataType="Struct" type="Duality.Components.Transform" id="3454371878">
          <active dataType="Bool">true</active>
          <angle dataType="Float">0</angle>
          <angleAbs dataType="Float">0</angleAbs>
          <angleVel dataType="Float">0</angleVel>
          <angleVelAbs dataType="Float">0</angleVelAbs>
          <deriveAngle dataType="Bool">true</deriveAngle>
          <gameobj dataType="ObjectRef">1094056946</gameobj>
          <ignoreParent dataType="Bool">false</ignoreParent>
          <parentTransform />
          <pos dataType="Struct" type="Duality.Vector3" />
          <posAbs dataType="Struct" type="Duality.Vector3" />
          <scale dataType="Float">1</scale>
          <scaleAbs dataType="Float">1</scaleAbs>
          <vel dataType="Struct" type="Duality.Vector3" />
          <velAbs dataType="Struct" type="Duality.Vector3" />
        </item>
        <item dataType="Struct" type="Duality.Components.Renderers.AnimSpriteRenderer" id="801492327">
          <active dataType="Bool">true</active>
          <animDuration dataType="Float">0.5</animDuration>
          <animFirstFrame dataType="Int">0</animFirstFrame>
          <animFrameCount dataType="Int">4</animFrameCount>
          <animLoopMode dataType="Enum" type="Duality.Components.Renderers.AnimSpriteRenderer+LoopMode" name="Loop" value="1" />
          <animPaused dataType="Bool">false</animPaused>
          <animTime dataType="Float">0</animTime>
          <colorTint dataType="Struct" type="Duality.Drawing.ColorRgba">
            <A dataType="Byte">255</A>
            <B dataType="Byte">255</B>
            <G dataType="Byte">255</G>
            <R dataType="Byte">255</R>
          </colorTint>
          <customFrameSequence />
          <customMat />
          <flipMode dataType="Enum" type="Duality.Components.Renderers.SpriteRenderer+FlipMode" name="None" value="0" />
          <gameobj dataType="ObjectRef">1094056946</gameobj>
          <offset dataType="Int">0</offset>
          <pixelGrid dataType="Bool">false</pixelGrid>
          <rect dataType="Struct" type="Duality.Rect">
            <H dataType="Float">30</H>
            <W dataType="Float">30</W>
            <X dataType="Float">-15</X>
            <Y dataType="Float">-15</Y>
          </rect>
          <rectMode dataType="Enum" type="Duality.Components.Renderers.SpriteRenderer+UVMode" name="Stretch" value="0" />
          <sharedMat dataType="Struct" type="Duality.ContentRef`1[[Duality.Resources.Material]]">
            <contentPath dataType="String">Data\Sprites &amp; Spritesheets\Projectiles\Pea_Hit.Material.res</contentPath>
          </sharedMat>
          <visibilityGroup dataType="Enum" type="Duality.Drawing.VisibilityFlag" name="Group0" value="1" />
        </item>
      </_items>
      <_size dataType="Int">4</_size>
      <_version dataType="Int">4</_version>
    </compList>
    <compMap dataType="Struct" type="System.Collections.Generic.Dictionary`2[[System.Type],[Duality.Component]]" id="1607185736" surrogate="true">
      <header />
      <body>
        <keys dataType="Array" type="System.Object[]" id="105255807">
          <item dataType="Type" id="1490564398" value="Duality.Components.Transform" />
          <item dataType="Type" id="3948425418" value="Duality.Components.Renderers.AnimSpriteRenderer" />
        </keys>
        <values dataType="Array" type="System.Object[]" id="548079456">
          <item dataType="ObjectRef">3454371878</item>
          <item dataType="ObjectRef">801492327</item>
        </values>
      </body>
    </compMap>
    <compTransform dataType="ObjectRef">3454371878</compTransform>
    <identifier dataType="Struct" type="System.Guid" surrogate="true">
      <header>
        <data dataType="Array" type="System.Byte[]" id="4003642413">gLbLFf5NzE2LBxnAH/IKvg==</data>
      </header>
      <body />
    </identifier>
    <initState dataType="Enum" type="Duality.InitState" name="Initialized" value="1" />
    <name dataType="String">Pea_Hit</name>
    <parent />
    <prefabLink />
  </objTree>
</root>
<!-- XmlFormatterBase Document Separator -->
