﻿<root dataType="Struct" type="Duality.Resources.Prefab" id="129723834">
  <assetInfo dataType="Struct" type="Duality.Editor.AssetManagement.AssetInfo" id="427169525">
    <customData />
    <importerId />
    <sourceFileHint />
  </assetInfo>
  <objTree dataType="Struct" type="Duality.GameObject" id="3124865670">
    <active dataType="Bool">true</active>
    <children />
    <compList dataType="Struct" type="System.Collections.Generic.List`1[[Duality.Component]]" id="4230325649">
      <_items dataType="Array" type="Duality.Component[]" id="1821651438" length="8">
        <item dataType="Struct" type="Duality.Components.Transform" id="1190213306">
          <active dataType="Bool">true</active>
          <angle dataType="Float">0</angle>
          <angleAbs dataType="Float">0</angleAbs>
          <angleVel dataType="Float">0</angleVel>
          <angleVelAbs dataType="Float">0</angleVelAbs>
          <deriveAngle dataType="Bool">true</deriveAngle>
          <gameobj dataType="ObjectRef">3124865670</gameobj>
          <ignoreParent dataType="Bool">false</ignoreParent>
          <parentTransform />
          <pos dataType="Struct" type="Duality.Vector3">
            <X dataType="Float">0</X>
            <Y dataType="Float">0</Y>
            <Z dataType="Float">0.3</Z>
          </pos>
          <posAbs dataType="Struct" type="Duality.Vector3">
            <X dataType="Float">0</X>
            <Y dataType="Float">0</Y>
            <Z dataType="Float">0.3</Z>
          </posAbs>
          <scale dataType="Float">1</scale>
          <scaleAbs dataType="Float">1</scaleAbs>
          <vel dataType="Struct" type="Duality.Vector3" />
          <velAbs dataType="Struct" type="Duality.Vector3" />
        </item>
        <item dataType="Struct" type="Duality.Components.Renderers.AnimSpriteRenderer" id="2832301051">
          <active dataType="Bool">true</active>
          <animDuration dataType="Float">0.6</animDuration>
          <animFirstFrame dataType="Int">0</animFirstFrame>
          <animFrameCount dataType="Int">7</animFrameCount>
          <animLoopMode dataType="Enum" type="Duality.Components.Renderers.AnimSpriteRenderer+LoopMode" name="Loop" value="1" />
          <animPaused dataType="Bool">false</animPaused>
          <animTime dataType="Float">0</animTime>
          <colorTint dataType="Struct" type="Duality.Drawing.ColorRgba">
            <A dataType="Byte">255</A>
            <B dataType="Byte">255</B>
            <G dataType="Byte">255</G>
            <R dataType="Byte">255</R>
          </colorTint>
          <customFrameSequence />
          <customMat />
          <flipMode dataType="Enum" type="Duality.Components.Renderers.SpriteRenderer+FlipMode" name="None" value="0" />
          <gameobj dataType="ObjectRef">3124865670</gameobj>
          <offset dataType="Int">0</offset>
          <pixelGrid dataType="Bool">false</pixelGrid>
          <rect dataType="Struct" type="Duality.Rect">
            <H dataType="Float">14</H>
            <W dataType="Float">16</W>
            <X dataType="Float">-8</X>
            <Y dataType="Float">-10</Y>
          </rect>
          <rectMode dataType="Enum" type="Duality.Components.Renderers.SpriteRenderer+UVMode" name="Stretch" value="0" />
          <sharedMat dataType="Struct" type="Duality.ContentRef`1[[Duality.Resources.Material]]">
            <contentPath dataType="String">Data\Sprites &amp; Spritesheets\Projectiles\FlamethrowerParticle.Material.res</contentPath>
          </sharedMat>
          <visibilityGroup dataType="Enum" type="Duality.Drawing.VisibilityFlag" name="Group0" value="1" />
        </item>
        <item />
        <item dataType="Struct" type="Duality.Components.Physics.RigidBody" id="1892674898">
          <active dataType="Bool">true</active>
          <angularDamp dataType="Float">0.3</angularDamp>
          <angularVel dataType="Float">0</angularVel>
          <bodyType dataType="Enum" type="Duality.Components.Physics.BodyType" name="Dynamic" value="1" />
          <colCat dataType="Enum" type="Duality.Components.Physics.CollisionCategory" name="Cat1" value="1" />
          <colFilter />
          <colWith dataType="Enum" type="Duality.Components.Physics.CollisionCategory" name="All" value="2147483647" />
          <continous dataType="Bool">true</continous>
          <explicitInertia dataType="Float">0</explicitInertia>
          <explicitMass dataType="Float">0</explicitMass>
          <fixedAngle dataType="Bool">true</fixedAngle>
          <gameobj dataType="ObjectRef">3124865670</gameobj>
          <ignoreGravity dataType="Bool">true</ignoreGravity>
          <joints />
          <linearDamp dataType="Float">0.3</linearDamp>
          <linearVel dataType="Struct" type="Duality.Vector2" />
          <revolutions dataType="Float">0</revolutions>
          <shapes dataType="Struct" type="System.Collections.Generic.List`1[[Duality.Components.Physics.ShapeInfo]]" id="522587382">
            <_items dataType="Array" type="Duality.Components.Physics.ShapeInfo[]" id="1399256288">
              <item dataType="Struct" type="Duality.Components.Physics.CircleShapeInfo" id="2083913692">
                <density dataType="Float">1</density>
                <friction dataType="Float">0.3</friction>
                <parent dataType="ObjectRef">1892674898</parent>
                <position dataType="Struct" type="Duality.Vector2">
                  <X dataType="Float">0</X>
                  <Y dataType="Float">1</Y>
                </position>
                <radius dataType="Float">4</radius>
                <restitution dataType="Float">0.3</restitution>
                <sensor dataType="Bool">true</sensor>
              </item>
            </_items>
            <_size dataType="Int">1</_size>
            <_version dataType="Int">18</_version>
          </shapes>
        </item>
        <item dataType="Struct" type="Behavior.PepperFlameParticle" id="3122253807">
          <_x003C_Creator_x003E_k__BackingField />
          <_x003C_LinearVelocityToSet_x003E_k__BackingField dataType="Struct" type="Duality.Vector2" />
          <_x003C_PepperSpriteRenderer_x003E_k__BackingField dataType="ObjectRef">2832301051</_x003C_PepperSpriteRenderer_x003E_k__BackingField>
          <_x003C_RotatingBreakPeriod_x003E_k__BackingField dataType="Float">0.1</_x003C_RotatingBreakPeriod_x003E_k__BackingField>
          <_x003C_Speed_x003E_k__BackingField dataType="Float">4</_x003C_Speed_x003E_k__BackingField>
          <_x003C_StartRotation_x003E_k__BackingField dataType="Bool">false</_x003C_StartRotation_x003E_k__BackingField>
          <active dataType="Bool">true</active>
          <animationManager />
          <currentTime dataType="Float">0</currentTime>
          <gameobj dataType="ObjectRef">3124865670</gameobj>
          <hasCollided dataType="Bool">false</hasCollided>
          <heldWeapon dataType="Struct" type="Behavior.HeldWeapon" id="301082255">
            <_x003C_CurrentWeapon_x003E_k__BackingField dataType="Struct" type="Misc.Weapon" id="1868967838">
              <_x003C_BottomLeft_x003E_k__BackingField dataType="Float">29</_x003C_BottomLeft_x003E_k__BackingField>
              <_x003C_BottomRight_x003E_k__BackingField dataType="Float">19</_x003C_BottomRight_x003E_k__BackingField>
              <_x003C_BurstCount_x003E_k__BackingField dataType="Int">1</_x003C_BurstCount_x003E_k__BackingField>
              <_x003C_ID_x003E_k__BackingField dataType="Int">2</_x003C_ID_x003E_k__BackingField>
              <_x003C_Inaccuracy_x003E_k__BackingField dataType="Float">0</_x003C_Inaccuracy_x003E_k__BackingField>
              <_x003C_PrefabXOffset_x003E_k__BackingField dataType="Float">8</_x003C_PrefabXOffset_x003E_k__BackingField>
              <_x003C_PrefabYOffset_x003E_k__BackingField dataType="Float">2.8</_x003C_PrefabYOffset_x003E_k__BackingField>
              <_x003C_RateOfFire_x003E_k__BackingField dataType="Float">0.5</_x003C_RateOfFire_x003E_k__BackingField>
              <_x003C_RecoilAmount_x003E_k__BackingField dataType="Enum" type="Misc.RecoilAmount" name="Light" value="0" />
              <_x003C_Slug_x003E_k__BackingField dataType="String">pepper_thrower</_x003C_Slug_x003E_k__BackingField>
              <_x003C_Sprite_x003E_k__BackingField dataType="Struct" type="Duality.ContentRef`1[[Duality.Resources.Texture]]">
                <contentPath dataType="String">Data\Sprites &amp; Spritesheets\Weapons\pepper_thrower.Texture.res</contentPath>
              </_x003C_Sprite_x003E_k__BackingField>
              <_x003C_Title_x003E_k__BackingField dataType="String">Pepper Thrower</_x003C_Title_x003E_k__BackingField>
              <_x003C_TopLeft_x003E_k__BackingField dataType="Float">-14.5</_x003C_TopLeft_x003E_k__BackingField>
              <_x003C_TopRight_x003E_k__BackingField dataType="Float">-9.5</_x003C_TopRight_x003E_k__BackingField>
              <_x003C_TypeOfProjectile_x003E_k__BackingField dataType="Enum" type="Misc.ProjectileType" name="Pepper" value="2" />
              <_x003C_XOffset_x003E_k__BackingField dataType="Float">14.5</_x003C_XOffset_x003E_k__BackingField>
              <_x003C_YOffset_x003E_k__BackingField dataType="Float">2.4</_x003C_YOffset_x003E_k__BackingField>
            </_x003C_CurrentWeapon_x003E_k__BackingField>
            <_x003C_prefabSpawnOffset_x003E_k__BackingField dataType="Struct" type="Duality.Vector3">
              <X dataType="Float">8</X>
              <Y dataType="Float">2.8</Y>
              <Z dataType="Float">0.3</Z>
            </_x003C_prefabSpawnOffset_x003E_k__BackingField>
            <_x003C_weaponOffset_x003E_k__BackingField dataType="Struct" type="Duality.Vector2">
              <X dataType="Float">14.5</X>
              <Y dataType="Float">2.4</Y>
            </_x003C_weaponOffset_x003E_k__BackingField>
            <active dataType="Bool">true</active>
            <animationState dataType="Enum" type="Behavior.WeaponAnimationState" name="Idle" value="0" />
            <firingDelay dataType="Float">50</firingDelay>
            <firingDelayCounter dataType="Float">0</firingDelayCounter>
            <gameobj dataType="Struct" type="Duality.GameObject" id="672812220">
              <active dataType="Bool">true</active>
              <children />
              <compList dataType="Struct" type="System.Collections.Generic.List`1[[Duality.Component]]" id="4176748122">
                <_items dataType="Array" type="Duality.Component[]" id="4134820864">
                  <item dataType="Struct" type="Duality.Components.Transform" id="3033127152">
                    <active dataType="Bool">true</active>
                    <angle dataType="Float">0</angle>
                    <angleAbs dataType="Float">0</angleAbs>
                    <angleVel dataType="Float">0</angleVel>
                    <angleVelAbs dataType="Float">0</angleVelAbs>
                    <deriveAngle dataType="Bool">true</deriveAngle>
                    <gameobj dataType="ObjectRef">672812220</gameobj>
                    <ignoreParent dataType="Bool">false</ignoreParent>
                    <parentTransform />
                    <pos dataType="Struct" type="Duality.Vector3">
                      <X dataType="Float">0</X>
                      <Y dataType="Float">0</Y>
                      <Z dataType="Float">-0.1</Z>
                    </pos>
                    <posAbs dataType="Struct" type="Duality.Vector3">
                      <X dataType="Float">0</X>
                      <Y dataType="Float">0</Y>
                      <Z dataType="Float">-0.1</Z>
                    </posAbs>
                    <scale dataType="Float">1</scale>
                    <scaleAbs dataType="Float">1</scaleAbs>
                    <vel dataType="Struct" type="Duality.Vector3" />
                    <velAbs dataType="Struct" type="Duality.Vector3" />
                  </item>
                  <item />
                  <item dataType="ObjectRef">301082255</item>
                  <item dataType="Struct" type="Duality.Components.Renderers.AnimSpriteRenderer" id="380247601">
                    <active dataType="Bool">true</active>
                    <animDuration dataType="Float">5</animDuration>
                    <animFirstFrame dataType="Int">0</animFirstFrame>
                    <animFrameCount dataType="Int">0</animFrameCount>
                    <animLoopMode dataType="Enum" type="Duality.Components.Renderers.AnimSpriteRenderer+LoopMode" name="Loop" value="1" />
                    <animPaused dataType="Bool">false</animPaused>
                    <animTime dataType="Float">0</animTime>
                    <colorTint dataType="Struct" type="Duality.Drawing.ColorRgba">
                      <A dataType="Byte">255</A>
                      <B dataType="Byte">255</B>
                      <G dataType="Byte">255</G>
                      <R dataType="Byte">255</R>
                    </colorTint>
                    <customFrameSequence />
                    <customMat />
                    <flipMode dataType="Enum" type="Duality.Components.Renderers.SpriteRenderer+FlipMode" name="None" value="0" />
                    <gameobj dataType="ObjectRef">672812220</gameobj>
                    <offset dataType="Int">0</offset>
                    <pixelGrid dataType="Bool">false</pixelGrid>
                    <rect dataType="Struct" type="Duality.Rect">
                      <H dataType="Float">19</H>
                      <W dataType="Float">29</W>
                      <X dataType="Float">-14.5</X>
                      <Y dataType="Float">-9.5</Y>
                    </rect>
                    <rectMode dataType="Enum" type="Duality.Components.Renderers.SpriteRenderer+UVMode" name="Stretch" value="0" />
                    <sharedMat dataType="Struct" type="Duality.ContentRef`1[[Duality.Resources.Material]]">
                      <contentPath dataType="String">Data\Sprites &amp; Spritesheets\heldWeapon.Material.res</contentPath>
                    </sharedMat>
                    <visibilityGroup dataType="Enum" type="Duality.Drawing.VisibilityFlag" name="Group0" value="1" />
                  </item>
                </_items>
                <_size dataType="Int">4</_size>
                <_version dataType="Int">4</_version>
              </compList>
              <compMap dataType="Struct" type="System.Collections.Generic.Dictionary`2[[System.Type],[Duality.Component]]" id="928569786" surrogate="true">
                <header />
                <body>
                  <keys dataType="Array" type="System.Object[]" id="768251296">
                    <item dataType="Type" id="4218258140" value="Duality.Components.Transform" />
                    <item dataType="Type" id="4121791766" value="Behavior.HeldWeapon" />
                    <item dataType="Type" id="393805896" value="Duality.Components.Renderers.AnimSpriteRenderer" />
                  </keys>
                  <values dataType="Array" type="System.Object[]" id="2610677390">
                    <item dataType="ObjectRef">3033127152</item>
                    <item dataType="ObjectRef">301082255</item>
                    <item dataType="ObjectRef">380247601</item>
                  </values>
                </body>
              </compMap>
              <compTransform dataType="ObjectRef">3033127152</compTransform>
              <identifier dataType="Struct" type="System.Guid" surrogate="true">
                <header>
                  <data dataType="Array" type="System.Byte[]" id="2356036028">ww7ZFsN1MUKIHkuvVynjTg==</data>
                </header>
                <body />
              </identifier>
              <initState dataType="Enum" type="Duality.InitState" name="Initialized" value="1" />
              <name dataType="String">Weapon</name>
              <parent />
              <prefabLink dataType="Struct" type="Duality.Resources.PrefabLink" id="3512498778">
                <changes />
                <obj dataType="ObjectRef">672812220</obj>
                <prefab dataType="Struct" type="Duality.ContentRef`1[[Duality.Resources.Prefab]]">
                  <contentPath dataType="String">Data\Prefabs\Weapons\Weapon.Prefab.res</contentPath>
                </prefab>
              </prefabLink>
            </gameobj>
            <heldWeaponAnimRenderer dataType="ObjectRef">380247601</heldWeaponAnimRenderer>
            <hydroLaserPrefab dataType="Struct" type="Duality.ContentRef`1[[Duality.Resources.Prefab]]" />
            <idleAnimationDelayCounter dataType="Float">0</idleAnimationDelayCounter>
            <lemonadePrefab dataType="Struct" type="Duality.ContentRef`1[[Duality.Resources.Prefab]]">
              <contentPath dataType="String">Data\Prefabs\Weapons\Lemonade.Prefab.res</contentPath>
            </lemonadePrefab>
            <peaPrefab dataType="Struct" type="Duality.ContentRef`1[[Duality.Resources.Prefab]]">
              <contentPath dataType="String">Data\Prefabs\Weapons\Pea.Prefab.res</contentPath>
            </peaPrefab>
            <pepperFlamePrefab dataType="Struct" type="Duality.ContentRef`1[[Duality.Resources.Prefab]]">
              <contentPath dataType="String">Data\Prefabs\Weapons\FlamethrowerParticle.Prefab.res</contentPath>
            </pepperFlamePrefab>
            <player dataType="Struct" type="Duality.GameObject" id="787527030">
              <active dataType="Bool">true</active>
              <children dataType="Struct" type="System.Collections.Generic.List`1[[Duality.GameObject]]" id="2532057592">
                <_items dataType="Array" type="Duality.GameObject[]" id="2029968748" length="4" />
                <_size dataType="Int">0</_size>
                <_version dataType="Int">2</_version>
              </children>
              <compList dataType="Struct" type="System.Collections.Generic.List`1[[Duality.Component]]" id="961261022">
                <_items dataType="Array" type="Duality.Component[]" id="1472824378" length="8">
                  <item dataType="Struct" type="Duality.Components.Transform" id="3147841962">
                    <active dataType="Bool">true</active>
                    <angle dataType="Float">0</angle>
                    <angleAbs dataType="Float">0</angleAbs>
                    <angleVel dataType="Float">0</angleVel>
                    <angleVelAbs dataType="Float">0</angleVelAbs>
                    <deriveAngle dataType="Bool">true</deriveAngle>
                    <gameobj dataType="ObjectRef">787527030</gameobj>
                    <ignoreParent dataType="Bool">false</ignoreParent>
                    <parentTransform />
                    <pos dataType="Struct" type="Duality.Vector3">
                      <X dataType="Float">0</X>
                      <Y dataType="Float">-34.3</Y>
                      <Z dataType="Float">0</Z>
                    </pos>
                    <posAbs dataType="Struct" type="Duality.Vector3">
                      <X dataType="Float">0</X>
                      <Y dataType="Float">-34.3</Y>
                      <Z dataType="Float">0</Z>
                    </posAbs>
                    <scale dataType="Float">1</scale>
                    <scaleAbs dataType="Float">1</scaleAbs>
                    <vel dataType="Struct" type="Duality.Vector3" />
                    <velAbs dataType="Struct" type="Duality.Vector3" />
                  </item>
                  <item dataType="Struct" type="Player.PlayerController" id="1575548244">
                    <_x003C_AccelerationAirborne_x003E_k__BackingField dataType="Float">100</_x003C_AccelerationAirborne_x003E_k__BackingField>
                    <_x003C_AccelerationGrounded_x003E_k__BackingField dataType="Float">100</_x003C_AccelerationGrounded_x003E_k__BackingField>
                    <_x003C_BulletSpawnOffset_x003E_k__BackingField dataType="Struct" type="Duality.Vector3">
                      <X dataType="Float">4</X>
                      <Y dataType="Float">0.1</Y>
                      <Z dataType="Float">-0.1</Z>
                    </_x003C_BulletSpawnOffset_x003E_k__BackingField>
                    <_x003C_FacingDirection_x003E_k__BackingField dataType="Enum" type="Player.FacingDirection" name="Left" value="0" />
                    <_x003C_FiringDelay_x003E_k__BackingField dataType="Float">300</_x003C_FiringDelay_x003E_k__BackingField>
                    <_x003C_JumpHeight_x003E_k__BackingField dataType="Float">45</_x003C_JumpHeight_x003E_k__BackingField>
                    <_x003C_MoveSpeed_x003E_k__BackingField dataType="Float">72</_x003C_MoveSpeed_x003E_k__BackingField>
                    <_x003C_PlayerAnimationState_x003E_k__BackingField dataType="Enum" type="Player.PlayerAnimationState" name="Idle" value="0" />
                    <_x003C_TimeToJumpApex_x003E_k__BackingField dataType="Float">0.45</_x003C_TimeToJumpApex_x003E_k__BackingField>
                    <active dataType="Bool">true</active>
                    <animationManager />
                    <firingDelayCounter dataType="Float">0</firingDelayCounter>
                    <gameobj dataType="ObjectRef">787527030</gameobj>
                    <gravity dataType="Float">444.444458</gravity>
                    <heldWeapon dataType="ObjectRef">301082255</heldWeapon>
                    <jumpVelocity dataType="Float">200</jumpVelocity>
                    <spriteRenderer dataType="Struct" type="Duality.Components.Renderers.AnimSpriteRenderer" id="494962411">
                      <active dataType="Bool">true</active>
                      <animDuration dataType="Float">2</animDuration>
                      <animFirstFrame dataType="Int">6</animFirstFrame>
                      <animFrameCount dataType="Int">4</animFrameCount>
                      <animLoopMode dataType="Enum" type="Duality.Components.Renderers.AnimSpriteRenderer+LoopMode" name="Loop" value="1" />
                      <animPaused dataType="Bool">false</animPaused>
                      <animTime dataType="Float">0</animTime>
                      <colorTint dataType="Struct" type="Duality.Drawing.ColorRgba">
                        <A dataType="Byte">255</A>
                        <B dataType="Byte">255</B>
                        <G dataType="Byte">255</G>
                        <R dataType="Byte">255</R>
                      </colorTint>
                      <customFrameSequence />
                      <customMat />
                      <flipMode dataType="Enum" type="Duality.Components.Renderers.SpriteRenderer+FlipMode" name="None" value="0" />
                      <gameobj dataType="ObjectRef">787527030</gameobj>
                      <offset dataType="Int">0</offset>
                      <pixelGrid dataType="Bool">false</pixelGrid>
                      <rect dataType="Struct" type="Duality.Rect">
                        <H dataType="Float">26</H>
                        <W dataType="Float">24</W>
                        <X dataType="Float">-12</X>
                        <Y dataType="Float">-13</Y>
                      </rect>
                      <rectMode dataType="Enum" type="Duality.Components.Renderers.SpriteRenderer+UVMode" name="Stretch" value="0" />
                      <sharedMat dataType="Struct" type="Duality.ContentRef`1[[Duality.Resources.Material]]">
                        <contentPath dataType="String">Data\Sprites &amp; Spritesheets\Player\Player_Lemonman.Material.res</contentPath>
                      </sharedMat>
                      <visibilityGroup dataType="Enum" type="Duality.Drawing.VisibilityFlag" name="Group0" value="1" />
                    </spriteRenderer>
                    <velocity dataType="Struct" type="Duality.Vector2" />
                  </item>
                  <item dataType="Struct" type="Behavior.EntityStats" id="1425810874">
                    <_x003C_CurrentHealth_x003E_k__BackingField dataType="Int">35</_x003C_CurrentHealth_x003E_k__BackingField>
                    <_x003C_Dead_x003E_k__BackingField dataType="Bool">false</_x003C_Dead_x003E_k__BackingField>
                    <_x003C_MaxHealth_x003E_k__BackingField dataType="Int">35</_x003C_MaxHealth_x003E_k__BackingField>
                    <active dataType="Bool">true</active>
                    <animationManager />
                    <damageEffectLength dataType="Float">0.1</damageEffectLength>
                    <gameobj dataType="ObjectRef">787527030</gameobj>
                    <material dataType="Struct" type="Duality.ContentRef`1[[Duality.Resources.Material]]" />
                    <timer />
                  </item>
                  <item dataType="ObjectRef">494962411</item>
                  <item />
                  <item dataType="Struct" type="Manager.WeaponSpawner" id="1877854119">
                    <active dataType="Bool">true</active>
                    <gameobj dataType="ObjectRef">787527030</gameobj>
                    <heldWeaponPrefab dataType="Struct" type="Duality.ContentRef`1[[Duality.Resources.Prefab]]">
                      <contentPath dataType="String">Data\Prefabs\Weapons\Weapon.Prefab.res</contentPath>
                    </heldWeaponPrefab>
                  </item>
                  <item dataType="Struct" type="Behavior.Controller2D" id="3211926186">
                    <_x003C_CollidesWith_x003E_k__BackingField dataType="Enum" type="Duality.Components.Physics.CollisionCategory" name="None" value="0" />
                    <_x003C_entityType_x003E_k__BackingField dataType="Enum" type="Behavior.Controller2D+EntityType" name="Player" value="0" />
                    <_x003C_HorizontalRayCount_x003E_k__BackingField dataType="Int">3</_x003C_HorizontalRayCount_x003E_k__BackingField>
                    <_x003C_SkinWidth_x003E_k__BackingField dataType="Float">0.015</_x003C_SkinWidth_x003E_k__BackingField>
                    <_x003C_SpriteBoundsOffset_x003E_k__BackingField dataType="Struct" type="Duality.Vector2">
                      <X dataType="Float">14.4</X>
                      <Y dataType="Float">10.12</Y>
                    </_x003C_SpriteBoundsOffset_x003E_k__BackingField>
                    <_x003C_SpriteBoundsPositionOffset_x003E_k__BackingField dataType="Struct" type="Duality.Vector2">
                      <X dataType="Float">7.4</X>
                      <Y dataType="Float">10</Y>
                    </_x003C_SpriteBoundsPositionOffset_x003E_k__BackingField>
                    <_x003C_VerticalRayCount_x003E_k__BackingField dataType="Int">3</_x003C_VerticalRayCount_x003E_k__BackingField>
                    <active dataType="Bool">true</active>
                    <bounds dataType="Struct" type="Duality.Rect">
                      <H dataType="Float">15.88</H>
                      <W dataType="Float">9.6</W>
                      <X dataType="Float">-4.6</X>
                      <Y dataType="Float">-37.3</Y>
                    </bounds>
                    <collisions dataType="Struct" type="Behavior.Controller2D+CollisionInfo" />
                    <facingDirection dataType="Enum" type="Enemy.FacingDirection" name="Left" value="0" />
                    <gameobj dataType="ObjectRef">787527030</gameobj>
                    <horizontalRaySpacing dataType="Float">7.925</horizontalRaySpacing>
                    <raycastOrigins dataType="Struct" type="Behavior.Controller2D+RayCastOrigins" />
                    <verticalRaySpacing dataType="Float">4.78500032</verticalRaySpacing>
                  </item>
                </_items>
                <_size dataType="Int">7</_size>
                <_version dataType="Int">23</_version>
              </compList>
              <compMap dataType="Struct" type="System.Collections.Generic.Dictionary`2[[System.Type],[Duality.Component]]" id="1153505956" surrogate="true">
                <header />
                <body>
                  <keys dataType="Array" type="System.Object[]" id="1129758632">
                    <item dataType="ObjectRef">4218258140</item>
                    <item dataType="ObjectRef">393805896</item>
                    <item dataType="Type" id="747631276" value="Player.PlayerController" />
                    <item dataType="Type" id="186442166" value="Behavior.EntityStats" />
                    <item dataType="Type" id="236623096" value="Manager.WeaponSpawner" />
                    <item dataType="Type" id="784778642" value="Behavior.Controller2D" />
                  </keys>
                  <values dataType="Array" type="System.Object[]" id="3017208734">
                    <item dataType="ObjectRef">3147841962</item>
                    <item dataType="ObjectRef">494962411</item>
                    <item dataType="ObjectRef">1575548244</item>
                    <item dataType="ObjectRef">1425810874</item>
                    <item dataType="ObjectRef">1877854119</item>
                    <item dataType="ObjectRef">3211926186</item>
                  </values>
                </body>
              </compMap>
              <compTransform dataType="ObjectRef">3147841962</compTransform>
              <identifier dataType="Struct" type="System.Guid" surrogate="true">
                <header>
                  <data dataType="Array" type="System.Byte[]" id="2129383828">UPF8jIwOT0SjSKyQzVYuaQ==</data>
                </header>
                <body />
              </identifier>
              <initState dataType="Enum" type="Duality.InitState" name="Initialized" value="1" />
              <name dataType="String">Player</name>
              <parent />
              <prefabLink />
            </player>
            <playerAnimRenderer dataType="ObjectRef">494962411</playerAnimRenderer>
            <playerController dataType="ObjectRef">1575548244</playerController>
            <prefabToBeFired dataType="Struct" type="Duality.ContentRef`1[[Duality.Resources.Prefab]]">
              <contentPath dataType="String">Data\Prefabs\Weapons\FlamethrowerParticle.Prefab.res</contentPath>
            </prefabToBeFired>
            <transform dataType="ObjectRef">3033127152</transform>
            <weaponAnimationManager />
            <weaponDatabase dataType="Struct" type="System.Collections.Generic.List`1[[Misc.Weapon]]" id="1688430986">
              <_items dataType="Array" type="Misc.Weapon[]" id="665596604" length="4">
                <item dataType="Struct" type="Misc.Weapon" id="1349014084">
                  <_x003C_BottomLeft_x003E_k__BackingField dataType="Float">27</_x003C_BottomLeft_x003E_k__BackingField>
                  <_x003C_BottomRight_x003E_k__BackingField dataType="Float">12</_x003C_BottomRight_x003E_k__BackingField>
                  <_x003C_BurstCount_x003E_k__BackingField dataType="Int">1</_x003C_BurstCount_x003E_k__BackingField>
                  <_x003C_ID_x003E_k__BackingField dataType="Int">0</_x003C_ID_x003E_k__BackingField>
                  <_x003C_Inaccuracy_x003E_k__BackingField dataType="Float">3</_x003C_Inaccuracy_x003E_k__BackingField>
                  <_x003C_PrefabXOffset_x003E_k__BackingField dataType="Float">8</_x003C_PrefabXOffset_x003E_k__BackingField>
                  <_x003C_PrefabYOffset_x003E_k__BackingField dataType="Float">-0.6</_x003C_PrefabYOffset_x003E_k__BackingField>
                  <_x003C_RateOfFire_x003E_k__BackingField dataType="Float">3</_x003C_RateOfFire_x003E_k__BackingField>
                  <_x003C_RecoilAmount_x003E_k__BackingField dataType="Enum" type="Misc.RecoilAmount" name="Light" value="0" />
                  <_x003C_Slug_x003E_k__BackingField dataType="String">peastol</_x003C_Slug_x003E_k__BackingField>
                  <_x003C_Sprite_x003E_k__BackingField dataType="Struct" type="Duality.ContentRef`1[[Duality.Resources.Texture]]">
                    <contentPath dataType="String">Data\Sprites &amp; Spritesheets\Weapons\peastol.Texture.res</contentPath>
                  </_x003C_Sprite_x003E_k__BackingField>
                  <_x003C_Title_x003E_k__BackingField dataType="String">Peastol</_x003C_Title_x003E_k__BackingField>
                  <_x003C_TopLeft_x003E_k__BackingField dataType="Float">-13.5</_x003C_TopLeft_x003E_k__BackingField>
                  <_x003C_TopRight_x003E_k__BackingField dataType="Float">-6</_x003C_TopRight_x003E_k__BackingField>
                  <_x003C_TypeOfProjectile_x003E_k__BackingField dataType="Enum" type="Misc.ProjectileType" name="Pea" value="0" />
                  <_x003C_XOffset_x003E_k__BackingField dataType="Float">10.5</_x003C_XOffset_x003E_k__BackingField>
                  <_x003C_YOffset_x003E_k__BackingField dataType="Float">3.2</_x003C_YOffset_x003E_k__BackingField>
                </item>
                <item dataType="Struct" type="Misc.Weapon" id="2252466838">
                  <_x003C_BottomLeft_x003E_k__BackingField dataType="Float">33</_x003C_BottomLeft_x003E_k__BackingField>
                  <_x003C_BottomRight_x003E_k__BackingField dataType="Float">18</_x003C_BottomRight_x003E_k__BackingField>
                  <_x003C_BurstCount_x003E_k__BackingField dataType="Int">1</_x003C_BurstCount_x003E_k__BackingField>
                  <_x003C_ID_x003E_k__BackingField dataType="Int">1</_x003C_ID_x003E_k__BackingField>
                  <_x003C_Inaccuracy_x003E_k__BackingField dataType="Float">5</_x003C_Inaccuracy_x003E_k__BackingField>
                  <_x003C_PrefabXOffset_x003E_k__BackingField dataType="Float">17.9</_x003C_PrefabXOffset_x003E_k__BackingField>
                  <_x003C_PrefabYOffset_x003E_k__BackingField dataType="Float">-0.6</_x003C_PrefabYOffset_x003E_k__BackingField>
                  <_x003C_RateOfFire_x003E_k__BackingField dataType="Float">5</_x003C_RateOfFire_x003E_k__BackingField>
                  <_x003C_RecoilAmount_x003E_k__BackingField dataType="Enum" type="Misc.RecoilAmount" name="Heavy" value="2" />
                  <_x003C_Slug_x003E_k__BackingField dataType="String">lemonade_launcher</_x003C_Slug_x003E_k__BackingField>
                  <_x003C_Sprite_x003E_k__BackingField dataType="Struct" type="Duality.ContentRef`1[[Duality.Resources.Texture]]">
                    <contentPath dataType="String">Data\Sprites &amp; Spritesheets\Weapons\lemonade_launcher.Texture.res</contentPath>
                  </_x003C_Sprite_x003E_k__BackingField>
                  <_x003C_Title_x003E_k__BackingField dataType="String">Lemonade Launcher</_x003C_Title_x003E_k__BackingField>
                  <_x003C_TopLeft_x003E_k__BackingField dataType="Float">-16.5</_x003C_TopLeft_x003E_k__BackingField>
                  <_x003C_TopRight_x003E_k__BackingField dataType="Float">-9</_x003C_TopRight_x003E_k__BackingField>
                  <_x003C_TypeOfProjectile_x003E_k__BackingField dataType="Enum" type="Misc.ProjectileType" name="Lemonade" value="1" />
                  <_x003C_XOffset_x003E_k__BackingField dataType="Float">8.45</_x003C_XOffset_x003E_k__BackingField>
                  <_x003C_YOffset_x003E_k__BackingField dataType="Float">2</_x003C_YOffset_x003E_k__BackingField>
                </item>
                <item dataType="ObjectRef">1868967838</item>
              </_items>
              <_size dataType="Int">3</_size>
              <_version dataType="Int">3</_version>
            </weaponDatabase>
            <weaponDatabaseObject dataType="Struct" type="Duality.GameObject" id="2834260959">
              <active dataType="Bool">true</active>
              <children />
              <compList dataType="Struct" type="System.Collections.Generic.List`1[[Duality.Component]]" id="1376474149">
                <_items dataType="Array" type="Duality.Component[]" id="4165207190" length="4">
                  <item dataType="Struct" type="Manager.WeaponDatabaseManager" id="3611639126">
                    <_x003C_weaponDatabase_x003E_k__BackingField dataType="ObjectRef">1688430986</_x003C_weaponDatabase_x003E_k__BackingField>
                    <active dataType="Bool">true</active>
                    <gameobj dataType="ObjectRef">2834260959</gameobj>
                  </item>
                </_items>
                <_size dataType="Int">1</_size>
                <_version dataType="Int">11</_version>
              </compList>
              <compMap dataType="Struct" type="System.Collections.Generic.Dictionary`2[[System.Type],[Duality.Component]]" id="1014362984" surrogate="true">
                <header />
                <body>
                  <keys dataType="Array" type="System.Object[]" id="245756111">
                    <item dataType="Type" id="2705723438" value="Manager.WeaponDatabaseManager" />
                  </keys>
                  <values dataType="Array" type="System.Object[]" id="2759552608">
                    <item dataType="ObjectRef">3611639126</item>
                  </values>
                </body>
              </compMap>
              <compTransform />
              <identifier dataType="Struct" type="System.Guid" surrogate="true">
                <header>
                  <data dataType="Array" type="System.Byte[]" id="182968093">biwph8Z5kk+28lYMuemNIw==</data>
                </header>
                <body />
              </identifier>
              <initState dataType="Enum" type="Duality.InitState" name="Initialized" value="1" />
              <name dataType="String">WorldManagers</name>
              <parent />
              <prefabLink />
            </weaponDatabaseObject>
          </heldWeapon>
          <lifetimeCounter dataType="Float">0</lifetimeCounter>
          <player />
          <playerController dataType="ObjectRef">1575548244</playerController>
          <prefabDamage dataType="Int">1</prefabDamage>
          <prefabLifetime dataType="Float">0.6</prefabLifetime>
          <rigidBody dataType="ObjectRef">1892674898</rigidBody>
          <shapeInfo dataType="ObjectRef">2083913692</shapeInfo>
          <stats />
          <transform dataType="ObjectRef">1190213306</transform>
        </item>
      </_items>
      <_size dataType="Int">5</_size>
      <_version dataType="Int">5</_version>
    </compList>
    <compMap dataType="Struct" type="System.Collections.Generic.Dictionary`2[[System.Type],[Duality.Component]]" id="3384680096" surrogate="true">
      <header />
      <body>
        <keys dataType="Array" type="System.Object[]" id="599012923">
          <item dataType="ObjectRef">4218258140</item>
          <item dataType="ObjectRef">393805896</item>
          <item dataType="Type" id="2913457878" value="Duality.Components.Physics.RigidBody" />
          <item dataType="Type" id="2547023834" value="Behavior.PepperFlameParticle" />
        </keys>
        <values dataType="Array" type="System.Object[]" id="4121724456">
          <item dataType="ObjectRef">1190213306</item>
          <item dataType="ObjectRef">2832301051</item>
          <item dataType="ObjectRef">1892674898</item>
          <item dataType="ObjectRef">3122253807</item>
        </values>
      </body>
    </compMap>
    <compTransform dataType="ObjectRef">1190213306</compTransform>
    <identifier dataType="Struct" type="System.Guid" surrogate="true">
      <header>
        <data dataType="Array" type="System.Byte[]" id="291774897">je1eJx+BK0erlhzGMbNHIA==</data>
      </header>
      <body />
    </identifier>
    <initState dataType="Enum" type="Duality.InitState" name="Initialized" value="1" />
    <name dataType="String">FlamethrowerParticle</name>
    <parent />
    <prefabLink />
  </objTree>
</root>
<!-- XmlFormatterBase Document Separator -->
