[
  {
    "StartFrame": 1,
    "AmountOfAnimationFrames": 1,
    "AnimationDuration": 0.1,
    "AnimationName": "idle"
  },
  {
  	"StartFrame": 2,
  	"AmountOfAnimationFrames": 2,
  	"AnimationDuration": 0.2,
  	"AnimationName": "fire"
  },
  {
    "StartFrame": 1,
    "AmountOfAnimationFrames": 1,
    "AnimationDuration": 0.1,
    "AnimationName": "playerMoving"
  }
]