﻿<root dataType="Struct" type="Duality.Resources.Pixmap" id="129723834">
  <animCols dataType="Int">0</animCols>
  <animFrameBorder dataType="Int">0</animFrameBorder>
  <animRows dataType="Int">0</animRows>
  <assetInfo dataType="Struct" type="Duality.Editor.AssetManagement.AssetInfo" id="427169525">
    <customData />
    <importerId dataType="String">BasicPixmapAssetImporter</importerId>
    <sourceFileHint dataType="Array" type="System.String[]" id="1100841590">
      <item dataType="String">{Name}.png</item>
    </sourceFileHint>
  </assetInfo>
  <atlas />
  <layers dataType="Struct" type="System.Collections.Generic.List`1[[Duality.Drawing.PixelData]]" id="2035693768">
    <_items dataType="Array" type="Duality.Drawing.PixelData[]" id="2696347487" length="4">
      <item dataType="Struct" type="Duality.Drawing.PixelData" id="1485019246" custom="true">
        <body>
          <version dataType="Int">4</version>
          <formatId dataType="String">image/png</formatId>
          <pixelData dataType="Array" type="System.Byte[]" id="2204481104">iVBORw0KGgoAAAANSUhEUgAAAAEAAAABCAYAAAAfFcSJAAAAAXNSR0IArs4c6QAAAARnQU1BAACxjwv8YQUAAAAJcEhZcwAADsMAAA7DAcdvqGQAAAANSURBVBhXY2BgYGAAAAAFAAGKM+MAAAAAAElFTkSuQmCC</pixelData>
        </body>
      </item>
    </_items>
    <_size dataType="Int">1</_size>
    <_version dataType="Int">2</_version>
  </layers>
</root>
<!-- XmlFormatterBase Document Separator -->
