﻿<root dataType="Struct" type="Duality.Resources.Material" id="129723834">
  <assetInfo />
  <info dataType="Struct" type="Duality.Drawing.BatchInfo" id="427169525">
    <dirtyFlag dataType="Enum" type="Duality.Drawing.BatchInfo+DirtyFlag" name="None" value="0" />
    <hashCode dataType="Int">0</hashCode>
    <mainColor dataType="Struct" type="Duality.Drawing.ColorRgba">
      <A dataType="Byte">255</A>
      <B dataType="Byte">255</B>
      <G dataType="Byte">255</G>
      <R dataType="Byte">255</R>
    </mainColor>
    <technique dataType="Struct" type="Duality.ContentRef`1[[Duality.Resources.DrawTechnique]]">
      <contentPath dataType="String">Data\BasicShaders\Shaders\FragmentSample\FragmentDrawTechnique.DrawTechnique.res</contentPath>
    </technique>
    <textures dataType="Struct" type="System.Collections.Generic.Dictionary`2[[System.String],[Duality.ContentRef`1[[Duality.Resources.Texture]]]]" id="1100841590" surrogate="true">
      <header />
      <body>
        <mainTex dataType="Struct" type="Duality.ContentRef`1[[Duality.Resources.Texture]]">
          <contentPath dataType="String">Default:Texture:Checkerboard</contentPath>
        </mainTex>
      </body>
    </textures>
    <uniforms dataType="Struct" type="System.Collections.Generic.Dictionary`2[[System.String],[System.Single[]]]" id="649525530" surrogate="true">
      <header />
      <body>
        <GameTime dataType="Array" type="System.Single[]" id="411997508">0</GameTime>
        <CameraFocusDist dataType="Array" type="System.Single[]" id="1885627030">0</CameraFocusDist>
        <CameraPosition dataType="Array" type="System.Single[]" id="766962944">0, 0, 0</CameraPosition>
        <CameraParallax dataType="Array" type="System.Single[]" id="1352645666">0</CameraParallax>
        <ColorShiftSpeed dataType="Array" type="System.Single[]" id="3754462812">1</ColorShiftSpeed>
      </body>
    </uniforms>
  </info>
</root>
<!-- XmlFormatterBase Document Separator -->
